<?xml version="1.0" encoding="UTF-8"?>
<svg width="194px" height="16px" viewBox="0 0 194 16" version="1.1" xmlns="http://www.w3.org/2000/svg" xmlns:xlink="http://www.w3.org/1999/xlink">
    <!-- Generator: Sketch 45.2 (43514) - http://www.bohemiancoding.com/sketch -->
    <title>ОКО • КАПРЕМОНТА Copy</title>
    <desc>Created with Sketch.</desc>
    <defs></defs>
    <g id="Design" stroke="none" stroke-width="1" fill="none" fill-rule="evenodd">
        <g id="1.0-главная-страница-copy" transform="translate(-306.000000, -22.000000)" fill="#FFFFFF">
            <path d="M318.841797,31.1699219 C318.841797,32.9342536 318.298183,34.3811792 317.210938,35.5107422 C316.123692,36.6403051 314.68165,37.2050781 312.884766,37.2050781 C311.100903,37.2050781 309.670253,36.6403051 308.592773,35.5107422 C307.515294,34.3811792 306.976562,32.9342536 306.976562,31.1699219 L306.976562,28.6113281 C306.976562,26.8535068 307.513667,25.4082088 308.587891,24.2753906 C309.662115,23.1425725 311.091137,22.5761719 312.875,22.5761719 C314.671884,22.5761719 316.115554,23.1425725 317.206055,24.2753906 C318.296555,25.4082088 318.841797,26.8535068 318.841797,28.6113281 L318.841797,31.1699219 Z M315.990234,28.5917969 C315.990234,27.4785101 315.7168,26.5686884 315.169922,25.8623047 C314.623044,25.1559209 313.858078,24.8027344 312.875,24.8027344 C311.891922,24.8027344 311.136721,25.1542934 310.609375,25.8574219 C310.082029,26.5605504 309.818359,27.4719996 309.818359,28.5917969 L309.818359,31.1699219 C309.818359,32.30274 310.083656,33.2223272 310.614258,33.9287109 C311.144859,34.6350947 311.901688,34.9882812 312.884766,34.9882812 C313.874354,34.9882812 314.63932,34.6350947 315.179688,33.9287109 C315.720055,33.2223272 315.990234,32.30274 315.990234,31.1699219 L315.990234,28.5917969 Z M325.580078,31.0625 L323.998047,31.0625 L323.998047,37 L321.146484,37 L321.146484,22.78125 L323.998047,22.78125 L323.998047,28.5917969 L325.238281,28.5917969 L329.007812,22.78125 L332.494141,22.78125 L327.806641,29.4316406 L332.875,37 L329.398438,37 L325.580078,31.0625 Z M345.580078,31.1699219 C345.580078,32.9342536 345.036464,34.3811792 343.949219,35.5107422 C342.861974,36.6403051 341.419931,37.2050781 339.623047,37.2050781 C337.839184,37.2050781 336.408534,36.6403051 335.331055,35.5107422 C334.253575,34.3811792 333.714844,32.9342536 333.714844,31.1699219 L333.714844,28.6113281 C333.714844,26.8535068 334.251948,25.4082088 335.326172,24.2753906 C336.400396,23.1425725 337.829418,22.5761719 339.613281,22.5761719 C341.410165,22.5761719 342.853836,23.1425725 343.944336,24.2753906 C345.034836,25.4082088 345.580078,26.8535068 345.580078,28.6113281 L345.580078,31.1699219 Z M342.728516,28.5917969 C342.728516,27.4785101 342.455081,26.5686884 341.908203,25.8623047 C341.361325,25.1559209 340.596359,24.8027344 339.613281,24.8027344 C338.630203,24.8027344 337.875003,25.1542934 337.347656,25.8574219 C336.82031,26.5605504 336.556641,27.4719996 336.556641,28.5917969 L336.556641,31.1699219 C336.556641,32.30274 336.821937,33.2223272 337.352539,33.9287109 C337.883141,34.6350947 338.639969,34.9882812 339.623047,34.9882812 C340.612635,34.9882812 341.377601,34.6350947 341.917969,33.9287109 C342.458336,33.2223272 342.728516,32.30274 342.728516,31.1699219 L342.728516,28.5917969 Z M352.855469,29.1289062 C352.855469,28.4648404 353.062172,27.9277364 353.475586,27.5175781 C353.888999,27.1074198 354.453772,26.9023438 355.169922,26.9023438 C355.899092,26.9023438 356.472003,27.1057922 356.888672,27.5126953 C357.305341,27.9195984 357.513672,28.45833 357.513672,29.1289062 L357.513672,30.0078125 C357.513672,30.6783888 357.306968,31.2122376 356.893555,31.609375 C356.480141,32.0065124 355.912113,32.2050781 355.189453,32.2050781 C354.466793,32.2050781 353.897137,32.0048848 353.480469,31.6044922 C353.0638,31.2040996 352.855469,30.6718783 352.855469,30.0078125 L352.855469,29.1289062 Z M369.476562,31.0625 L367.894531,31.0625 L367.894531,37 L365.042969,37 L365.042969,22.78125 L367.894531,22.78125 L367.894531,28.5917969 L369.134766,28.5917969 L372.904297,22.78125 L376.390625,22.78125 L371.703125,29.4316406 L376.771484,37 L373.294922,37 L369.476562,31.0625 Z M385.580078,33.8945312 L380.589844,33.8945312 L379.623047,37 L376.742188,37 L381.634766,22.78125 L384.554688,22.78125 L389.427734,37 L386.546875,37 L385.580078,33.8945312 Z M381.273438,31.6972656 L384.896484,31.6972656 L383.099609,25.9355469 L383.070312,25.9355469 L381.273438,31.6972656 Z M402.367188,37 L399.515625,37 L399.515625,24.9785156 L393.714844,24.9785156 L393.714844,37 L390.863281,37 L390.863281,22.78125 L402.367188,22.78125 L402.367188,37 Z M407.875,31.84375 L407.875,37 L405.023438,37 L405.023438,22.78125 L410.6875,22.78125 C412.354175,22.78125 413.648107,23.1914021 414.569336,24.0117188 C415.490565,24.8320354 415.951172,25.9355399 415.951172,27.3222656 C415.951172,28.7089913 415.490565,29.8092407 414.569336,30.6230469 C413.648107,31.436853 412.354175,31.84375 410.6875,31.84375 L407.875,31.84375 Z M407.875,29.6464844 L410.6875,29.6464844 C411.501306,29.6464844 412.108396,29.4332704 412.508789,29.0068359 C412.909182,28.5804015 413.109375,28.025394 413.109375,27.3417969 C413.109375,26.6451788 412.909182,26.0771506 412.508789,25.6376953 C412.108396,25.19824 411.501306,24.9785156 410.6875,24.9785156 L407.875,24.9785156 L407.875,29.6464844 Z M426.791016,30.75 L420.902344,30.75 L420.902344,34.8125 L427.787109,34.8125 L427.787109,37 L418.050781,37 L418.050781,22.78125 L427.767578,22.78125 L427.767578,24.9785156 L420.902344,24.9785156 L420.902344,28.5527344 L426.791016,28.5527344 L426.791016,30.75 Z M433.255859,22.78125 L436.898438,33.3085938 L436.927734,33.3085938 L440.589844,22.78125 L444.320312,22.78125 L444.320312,37 L441.46875,37 L441.46875,32.7617188 L441.751953,26.3847656 L441.722656,26.375 L437.875,37 L435.960938,37 L432.132812,26.4140625 L432.103516,26.4238281 L432.386719,32.7617188 L432.386719,37 L429.535156,37 L429.535156,22.78125 L433.255859,22.78125 Z M458.5,31.1699219 C458.5,32.9342536 457.956386,34.3811792 456.869141,35.5107422 C455.781896,36.6403051 454.339853,37.2050781 452.542969,37.2050781 C450.759106,37.2050781 449.328456,36.6403051 448.250977,35.5107422 C447.173497,34.3811792 446.634766,32.9342536 446.634766,31.1699219 L446.634766,28.6113281 C446.634766,26.8535068 447.17187,25.4082088 448.246094,24.2753906 C449.320318,23.1425725 450.74934,22.5761719 452.533203,22.5761719 C454.330087,22.5761719 455.773758,23.1425725 456.864258,24.2753906 C457.954758,25.4082088 458.5,26.8535068 458.5,28.6113281 L458.5,31.1699219 Z M455.648438,28.5917969 C455.648438,27.4785101 455.375003,26.5686884 454.828125,25.8623047 C454.281247,25.1559209 453.516281,24.8027344 452.533203,24.8027344 C451.550125,24.8027344 450.794925,25.1542934 450.267578,25.8574219 C449.740232,26.5605504 449.476562,27.4719996 449.476562,28.5917969 L449.476562,31.1699219 C449.476562,32.30274 449.741859,33.2223272 450.272461,33.9287109 C450.803063,34.6350947 451.559891,34.9882812 452.542969,34.9882812 C453.532557,34.9882812 454.297523,34.6350947 454.837891,33.9287109 C455.378258,33.2223272 455.648438,32.30274 455.648438,31.1699219 L455.648438,28.5917969 Z M472.298828,37 L469.457031,37 L469.457031,31.0917969 L463.65625,31.0917969 L463.65625,37 L460.804688,37 L460.804688,22.78125 L463.65625,22.78125 L463.65625,28.8945312 L469.457031,28.8945312 L469.457031,22.78125 L472.298828,22.78125 L472.298828,37 Z M485.892578,24.9785156 L481.400391,24.9785156 L481.400391,37 L478.548828,37 L478.548828,24.9785156 L474.076172,24.9785156 L474.076172,22.78125 L485.892578,22.78125 L485.892578,24.9785156 Z M495.277344,33.8945312 L490.287109,33.8945312 L489.320312,37 L486.439453,37 L491.332031,22.78125 L494.251953,22.78125 L499.125,37 L496.244141,37 L495.277344,33.8945312 Z M490.970703,31.6972656 L494.59375,31.6972656 L492.796875,25.9355469 L492.767578,25.9355469 L490.970703,31.6972656 Z" id="ОКО-•-КАПРЕМОНТА-Copy"></path>
        </g>
    </g>
</svg>